<?xml version="1.0" standalone="no"?>
<!DOCTYPE svg PUBLIC "-//W3C//DTD SVG 1.1//EN" "http://www.w3.org/Graphics/SVG/1.1/DTD/svg11.dtd" >
<svg xmlns="http://www.w3.org/2000/svg">
<metadata>Generated by IcoMoon</metadata>
<defs>
<font id="icomoon" horiz-adv-x="512">
<font-face units-per-em="512" ascent="480" descent="-32" />
<missing-glyph horiz-adv-x="512" />
<glyph unicode="&#x20;" d="" horiz-adv-x="256" />
<glyph unicode="&#xe600;" d="M2.396 440.204c5.306-81.714 38.734-116.202 146.978-150.692 73.224-23.346 106.121-42.979 122.57-73.754 16.449-30.245 11.673-53.591-14.857-79.591-39.265-37.673-98.162-38.204-134.774-0.531-32.367 32.897-38.203 70.57-17.51 110.897 6.898 14.327 12.204 26.531 11.674 27.061s-18.571 9.021-39.796 19.633l-39.265 19.102-11.142-24.938c-15.918-34.49-15.918-94.979-0.53-128.937 16.449-35.55 43.51-63.142 79.061-80.121 28.122-13.796 36.612-15.387 75.346-13.796l42.979 1.061 21.755-27.591c12.204-14.857 33.959-37.142 48.815-48.815l27.061-21.224 23.877 19.632c13.265 11.142 35.020 32.897 47.755 48.815l23.877 29.183 41.387-1.592c32.367-1.061 46.693 1.061 65.795 9.021 85.958 38.204 124.692 133.182 87.019 214.364l-14.327 30.245-44.040-22.286-44.571-22.286 12.204-17.51c35.551-53.060 6.898-125.754-57.305-145.386-32.897-9.551-65.264 0.531-93.387 30.245-25.469 26-29.183 44.041-14.327 73.224 20.163 39.265 40.326 52.53 124.162 77.999 30.775 9.551 64.203 21.755 74.285 27.061 46.163 23.346 69.51 62.081 73.224 121.509l2.653 39.795-23.346-21.224c-31.306-28.652-82.244-48.285-160.774-62.081-107.183-18.041-272.731-9.021-353.384 19.632-33.428 11.673-66.326 31.837-80.121 48.815l-11.674 14.857 2.653-39.795zM347.289 65.597c-5.837-11.142-15.387-24.938-21.224-30.245-10.082-9.021-10.612-8.49-29.714 12.204-10.612 11.673-19.102 25.469-19.102 30.245s9.021 18.041 19.632 29.183l19.632 20.163 20.693-20.163 20.693-20.694-10.612-20.693zM183.863 235.391c7.959-20.163-26-40.326-37.142-22.285-6.898 10.612-11.673-17.51-6.368-32.897 9.020-24.408 20.163-31.837 47.224-31.837 20.694 0 27.061 2.123 36.081 13.796 15.918 20.163 14.857 52-2.123 68.448-14.857 15.387-42.979 18.571-37.673 4.775zM435.37 227.963c1.592-13.265 0-15.918-11.673-19.102-7.959-1.592-16.98-0.531-21.224 2.653-5.837 4.776-7.959 4.245-10.612-2.653-5.837-15.918-3.183-27.591 10.612-44.041 10.612-13.265 18.041-16.449 33.959-16.449 11.142 0 24.408 1.592 29.183 3.183 10.612 4.245 23.877 29.714 23.877 46.693 0 19.102-24.408 45.632-41.918 45.632-13.265 0-14.327-1.592-12.204-15.918z" horiz-adv-x="629" />
<glyph unicode="&#xe601;" d="M180.647 478.89c-41.135-4.696-79.077-16.717-124.156-39.256-45.267-22.54-52.217-30.429-54.846-61.233-0.563-8.452 0.188-19.534 2.066-30.804 3.006-17.469 11.27-48.836 14.463-54.846 1.127-2.254 0.375-4.132-2.254-6.574-6.386-5.823-12.773-18.219-14.838-28.926-7.513-39.257 23.855-107.815 87.153-191.399 18.783-24.418 53.719-66.492 57.476-68.746 2.63-1.69 2.254 2.442-2.63 30.053-2.442 13.524-4.132 24.606-3.945 24.981 0.188 0.188 3.945-5.26 8.452-12.209 18.407-29.865 46.019-71.939 47.145-71.939s35.688 51.841 48.648 72.879c3.381 5.447 6.386 9.579 6.95 9.204 0.375-0.563-0.939-11.27-3.193-24.043-2.066-12.772-4.132-25.357-4.508-27.987-0.564-3.945 0.375-3.381 7.701 4.696 46.394 51.654 93.915 118.521 116.080 163.413 15.026 30.428 21.788 50.339 22.916 68.746 1.502 19.91-0.375 29.49-8.077 42.262l-6.574 10.894 6.574 22.728c9.016 30.804 11.082 42.262 11.082 61.984 0.188 19.722-3.757 33.622-12.021 43.201-12.397 14.088-58.979 40.196-90.91 50.715-32.119 10.707-76.823 15.778-108.754 12.209zM243.57 459.168c21.037-3.569 41.887-10.519 62.172-20.662 14.651-7.513 44.704-26.108 44.704-27.987 0-0.375-8.264-1.69-18.219-3.005-21.601-2.63-45.643-9.204-62.36-17.093-25.357-11.645-50.714-34.561-64.426-57.852l-6.762-11.834-11.834 17.656c-6.386 9.579-16.529 22.164-22.352 27.799-20.474 19.722-55.41 35.124-89.219 39.444-9.204 1.315-19.91 2.63-23.479 3.193l-6.574 0.939 7.513 4.508c25.733 15.59 64.99 32.871 89.22 39.257 33.058 8.64 71.939 10.894 101.617 5.635zM85.041 384.975c25.733-6.011 53.907-21.225 67.995-36.439 5.26-5.447 4.32-7.137-5.26-10.33s-11.458-2.63-11.458 3.005c0 11.457-13.712 17.469-22.727 10.143-3.569-2.817-4.32-5.26-4.32-11.458l0.376-8.077-18.219 1.315c-27.236 2.066-58.791 8.077-61.797 12.021-2.817 3.569-2.442 38.693 0.375 43.389 2.254 3.569 33.998 1.502 55.035-3.569zM364.721 388.356c2.066-3.193 3.193-28.174 1.878-37.754l-1.315-8.264-16.341-3.005c-18.032-3.381-46.394-6.95-56.725-6.95-6.574 0-6.762 0.188-6.010 6.762 0.939 8.452-5.072 15.778-13.148 15.778-7.325 0-15.402-8.077-14.087-14.275 0.563-3.381 0-4.508-2.63-4.508-5.072 0-18.783 5.823-18.22 7.701 0.375 0.939 5.635 5.823 11.645 11.082 20.661 17.28 51.654 30.428 79.452 33.621 19.91 2.442 33.998 2.254 35.5-0.188zM128.805 339.707c0-4.696-6.198-4.132-7.138 0.752-0.376 2.254 0.564 3.193 3.193 3.193 2.817 0 3.945-1.127 3.945-3.945zM274.938 340.458c0.939-3.193-4.884-5.447-7.513-2.817-1.127 1.127-1.315 2.817-0.563 4.133 1.69 2.63 6.95 1.69 8.077-1.315zM179.332 314.538c4.508-7.701 10.518-20.849 13.336-29.114l5.072-14.838 4.32 12.584c4.32 13.148 14.651 33.81 20.474 41.511l3.569 4.508 5.071-4.132c3.006-2.254 9.955-5.447 15.778-7.326 14.463-4.32 58.979-4.132 89.032 0.375 12.209 1.879 22.728 2.817 23.479 2.254 0.563-0.752-0.752-7.138-3.005-14.275-3.945-11.834-4.884-13.148-12.584-16.905-26.86-12.96-51.278-62.923-74.193-152.518-7.889-30.616-7.137-28.926-50.339-97.86-12.773-20.286-24.042-36.627-24.982-36.063-1.879 1.315-35.124 54.846-54.095 87.341-11.27 19.346-14.651 26.86-18.407 42.262-22.164 89.596-47.521 142.375-76.447 157.778-2.254 1.127-5.072 7.325-7.889 16.717-2.442 8.264-4.32 15.026-3.944 15.402 0.188 0.188 6.762-0.752 14.651-2.254 26.484-4.508 45.643-6.011 69.309-5.447 24.794 0.563 39.444 3.756 47.334 10.33 2.254 2.066 4.883 3.569 5.447 3.757 0.564 0 4.696-6.386 9.016-14.088zM49.353 266.641c21.789-13.148 41.511-66.868 57.476-155.899 2.63-13.899 5.072-29.114 5.823-33.81l1.127-8.452-7.701 8.452c-13.9 15.402-47.521 61.233-59.542 81.143-23.103 38.317-33.058 69.31-28.738 88.844 1.691 7.137 4.32 12.397 8.453 16.905 7.325 7.701 13.899 8.452 23.103 2.817zM362.842 265.702c11.27-11.27 13.524-33.621 5.635-56.537-10.331-30.241-35.312-71.564-68.746-113.45-24.043-30.053-23.103-29.301-21.601-16.905 2.442 18.971 12.397 70.061 17.844 92.037 11.082 43.952 22.916 72.502 36.252 87.529 11.646 13.148 22.164 15.778 30.616 7.326z" horiz-adv-x="393" />
</font></defs></svg>